{
  "_id": "637eabfe577474c2bcfcab15",
  "date_created": "2022-11-24T00:25:50.951000",
  "tag": "periodic_maintenance/uniform_clique",
  "runs": [
    "637eabff577474c2bcfcab17",
    "637eac04577474c2bcfcab19",
    "637eac08577474c2bcfcab1b"
  ],
  "settings": { "verbosity": 1, "graph_params": { "loader_params": {} } },
  "graph": {
    "nodes": [
      { "id": "(0, 0)" },
      { "id": "(0, 1)" },
      { "id": "(1, 0)" },
      { "id": "(1, 1)" },
      { "id": "(2, 0)" },
      { "id": "(2, 1)" },
      { "id": "(3, 0)" },
      { "id": "(3, 1)" },
      { "id": "(4, 0)" },
      { "id": "(4, 1)" },
      { "id": "(5, 0)" },
      { "id": "(5, 1)" },
      {
        "id": "0",
        "data": { "memory": 2, "rewards": [0, 1], "delimiters": [10] },
        "nodes": [{ "id": "(0, 0)" }, { "id": "(0, 1)" }]
      },
      {
        "id": "1",
        "data": { "memory": 2, "rewards": [0, 1], "delimiters": [10] },
        "nodes": [{ "id": "(1, 0)" }, { "id": "(1, 1)" }]
      },
      {
        "id": "2",
        "data": { "memory": 2, "rewards": [0, 1], "delimiters": [10] },
        "nodes": [{ "id": "(2, 0)" }, { "id": "(2, 1)" }]
      },
      {
        "id": "3",
        "data": { "memory": 2, "rewards": [0, 1], "delimiters": [10] },
        "nodes": [{ "id": "(3, 0)" }, { "id": "(3, 1)" }]
      },
      {
        "id": "4",
        "data": { "memory": 2, "rewards": [0, 1], "delimiters": [10] },
        "nodes": [{ "id": "(4, 0)" }, { "id": "(4, 1)" }]
      },
      {
        "id": "5",
        "data": { "memory": 2, "rewards": [0, 1], "delimiters": [10] },
        "nodes": [{ "id": "(5, 0)" }, { "id": "(5, 1)" }]
      }
    ],
    "edges": [
      {
        "id": "(0, 0);(2, 1)",
        "src": "(0, 0)",
        "tgt": "(2, 1)",
        "probability": 0.9964375509213076
      },
      {
        "id": "(0, 0);(3, 0)",
        "src": "(0, 0)",
        "tgt": "(3, 0)",
        "probability": 0.0032651014022233864
      },
      {
        "id": "(0, 1);(2, 1)",
        "src": "(0, 1)",
        "tgt": "(2, 1)",
        "probability": 0.9990921540436118
      },
      {
        "id": "(1, 0);(5, 0)",
        "src": "(1, 0)",
        "tgt": "(5, 0)",
        "probability": 0.1732960466677823
      },
      {
        "id": "(1, 0);(5, 1)",
        "src": "(1, 0)",
        "tgt": "(5, 1)",
        "probability": 0.8257916788963606
      },
      {
        "id": "(1, 1);(3, 0)",
        "src": "(1, 1)",
        "tgt": "(3, 0)",
        "probability": 0.9997975266388265
      },
      {
        "id": "(2, 0);(5, 0)",
        "src": "(2, 0)",
        "tgt": "(5, 0)",
        "probability": 0.0012959319973077797
      },
      {
        "id": "(2, 0);(5, 1)",
        "src": "(2, 0)",
        "tgt": "(5, 1)",
        "probability": 0.9985265485494462
      },
      {
        "id": "(2, 1);(4, 0)",
        "src": "(2, 1)",
        "tgt": "(4, 0)",
        "probability": 0.8815118363396804
      },
      {
        "id": "(2, 1);(4, 1)",
        "src": "(2, 1)",
        "tgt": "(4, 1)",
        "probability": 0.11834122342671412
      },
      {
        "id": "(3, 0);(0, 0)",
        "src": "(3, 0)",
        "tgt": "(0, 0)",
        "probability": 0.3142490271206243
      },
      {
        "id": "(3, 0);(0, 1)",
        "src": "(3, 0)",
        "tgt": "(0, 1)",
        "probability": 0.6851868896555411
      },
      {
        "id": "(3, 1);(0, 1)",
        "src": "(3, 1)",
        "tgt": "(0, 1)",
        "probability": 0.15416257177680914
      },
      {
        "id": "(3, 1);(1, 0)",
        "src": "(3, 1)",
        "tgt": "(1, 0)",
        "probability": 0.01438831801947532
      },
      {
        "id": "(3, 1);(1, 1)",
        "src": "(3, 1)",
        "tgt": "(1, 1)",
        "probability": 0.0017023629778395147
      },
      {
        "id": "(3, 1);(2, 0)",
        "src": "(3, 1)",
        "tgt": "(2, 0)",
        "probability": 0.010022598349713632
      },
      {
        "id": "(3, 1);(2, 1)",
        "src": "(3, 1)",
        "tgt": "(2, 1)",
        "probability": 0.0041887341714642425
      },
      {
        "id": "(3, 1);(4, 0)",
        "src": "(3, 1)",
        "tgt": "(4, 0)",
        "probability": 0.03029213937748622
      },
      {
        "id": "(3, 1);(4, 1)",
        "src": "(3, 1)",
        "tgt": "(4, 1)",
        "probability": 0.5530971937339565
      },
      {
        "id": "(3, 1);(5, 0)",
        "src": "(3, 1)",
        "tgt": "(5, 0)",
        "probability": 0.2296391180813669
      },
      {
        "id": "(3, 1);(5, 1)",
        "src": "(3, 1)",
        "tgt": "(5, 1)",
        "probability": 0.002456435543139901
      },
      {
        "id": "(4, 0);(1, 0)",
        "src": "(4, 0)",
        "tgt": "(1, 0)",
        "probability": 0.011594922318820155
      },
      {
        "id": "(4, 0);(2, 0)",
        "src": "(4, 0)",
        "tgt": "(2, 0)",
        "probability": 0.9881473629612851
      },
      {
        "id": "(4, 1);(2, 0)",
        "src": "(4, 1)",
        "tgt": "(2, 0)",
        "probability": 0.9968771162240987
      },
      {
        "id": "(4, 1);(2, 1)",
        "src": "(4, 1)",
        "tgt": "(2, 1)",
        "probability": 0.0014448453903894297
      },
      {
        "id": "(5, 0);(1, 1)",
        "src": "(5, 0)",
        "tgt": "(1, 1)",
        "probability": 0.9988916406976901
      },
      {
        "id": "(5, 1);(1, 1)",
        "src": "(5, 1)",
        "tgt": "(1, 1)",
        "probability": 0.9996267611627405
      }
    ]
  },
  "run_settings": {
    "_id": "637eac08577474c2bcfcab1b",
    "date_created": "2022-11-24T00:26:00.814000"
  },
  "graph_data": {
    "date_created": "11/24/2022",
    "tag": "periodic_maintenance/uniform_clique",
    "epochs": 3,
    "mode": "max",
    "objective": "PeriodicMaintenance",
    "loader": "complete_graph"
  }
}
